{
    "title" : "noxDb - XML, JSON and SQL",
    "items" : [
            { "href" : "basics.html" , "title" : "Basics" } , 
            { "href" : "constants.html" , "title" : "Constants" } , 
            { "href" : "variables.html" , "title" : "Variables" } , 
            { "href" : "serializer.html" , "title" : "Serializer" } , 
            { "href" : "sql.html" , "title" : "SQL" } , 
            { "href" : "data-bif.html" , "title" : "Generator and Parser" }
        ]
}
